[
    {
        "name": "高效的Rust - Rust的开源生态以及时间场景",
        "desc": [
            "1.  介绍Rust特性",
            "2.  介绍Rust开源生态",
            "3.  Rust应用场景实践"
        ],
        "speaker": {
            "name": "柴轶晟",
            "org": "重庆大学",
            "desc": [
                "Backend Developer / FSF Member",
                "Linux / Android / Java / Rust",
                "OpenPGP:8D63 4277 16F4 A85A"
            ]
        },
        "interview_url": ""
    },
    {
        "name": "怎样设计一个没人用的编程语言",
        "desc": [
            "中文编程？No",
            "炫酷语法？No",
            "坚持三年，发布数十个版本，却没啥用户的编程语言，背后究竟有什么故事？听CovScript创始人为您亲自讲述"
        ],
        "speaker": {
            "name": "李登淳",
            "org": "智锐科创计算机协会",
            "desc": [
                "系统软件/开源社区/编程教育",
                "四川大学计算机学院双特生",
                "七年近百万行C++编程经验",
                "CovScript编程语言创始人"
            ]
        },
        "interview_url": ""
    },
    {
        "name": "系统级编程中资源管理的艺术 —— GC 还是 Move？",
        "desc": [
            "在任何一个健壮的系统中，资源管理永远是一个逃不开的话题。",
            "讲者将根据自身在实际开发中的体验，并结合 Java，Rust 和 C++ 的代码，解释最常见的两种资源管理方式：垃圾回收（GC）与移动语义（Move）的利弊，并提出自己的思考。"
        ],
        "speaker": {
            "name": "Kiva",
            "org": "智锐科创计算机协会",
            "desc": [
                "系统软件架构师，泛语言工程师，开源社区贡献者",
                "因兴趣而编程，超过 7 年项目经验",
                "KiVM 虚拟机作者"
            ]
        },
        "interview_url": ""
    },
    {
        "name": "信息爆发下的爬虫是信息的收集者还是剽窃者？",
        "desc": [
            "随着人工智能的爆发，目前多以深度学习为主，样本数据的采集催生了爬虫的发展。但是爬虫就像是一个生活在阳光下的蠕虫，它有法可依也无法可依，行业内多用道德准绳来约束它。有人用它作恶，有人合法使用。没有一个标准，爬虫永远都是蠕虫。"
        ],
        "speaker": {
            "name": "李洋",
            "org": "",
            "desc": [
                "一个来自祖国西北“兵团”的永远做着“无意义思考”的Coder，热爱代码，热爱开源。始终相信写代码的目的是使科技服务人类，推动社会发展。擅长写作，编程，写作方面主要以散文，诗歌为主。编程主要在Python，前端和部分硬件编程方面有了解。曾获互联网+创新创业大赛国赛银奖，主要在团队负责数据和硬件交互方面。个人博客：https://www.wicos.me"
            ]
        },
        "interview_url": ""
    },
    {
        "name": "一个别开生面的编程世界",
        "desc": [
            "主要介绍下gsoc，自己我自己因为接触开源所带来的变化."
        ],
        "speaker": {
            "name": "刘嘉辉",
            "org": "西安邮电大学",
            "desc": [
                "大四，腾讯微信部门工作，研发，大二gsoc"
            ]
        },
        "interview_url": ""
    },
    {
        "name": "开源软件与自由软件",
        "desc": [
            "介绍开源软件与自由软件的历史渊源"
        ],
        "speaker": {
            "name": "JingYu Pu",
            "org": "",
            "desc": [
                "目前高三在读...有一定计算机基础,对开源方面有一定兴趣."
            ]
        },
        "interview_url": ""
    },
    {
        "name": "我与开源的故事",
        "desc": [
            "主要分为四个部分",
            "1. 我的经历（各种开源项目的参与经历，分为大型和小型）",
            "2. SimpleKernel（作为项目作者的感悟，心态历程）",
            "3. asoc（安利）",
            "4.从开源项目的参与者/作者两个角度谈我的故事，最后说一下我对开源现状的理解，总结，over"
        ],
        "speaker": {
            "name": "牛志宏",
            "org": "西安石油大学",
            "desc": [
                "Linkedin: https://www.linkedin.com/in/zone-niuzh",
                "Github: https://github.com/MRNIU",
                "参与项目：Alibaba Summer of Code 2019：AliOS Things，homebrew，以及几个翻译项目",
                "个人项目：SimpleKernel 等"
            ]
        },
        "interview_url": ""
    },
    {
        "name": "WebP Server Go",
        "desc": [
            "WebP是一种同时提供了有损压缩与无损压缩的图片文件格式，目标是减少文件大小，但达到和JPEG格式几乎相同的图片质量。 ",
            "为了让点的图片可以无痛地以 WebP 格式输出，部分云服务商提供了转换服务，对于个人站点而言，为了同样在不改变站点原始 URL 的的情况下将图片压缩 WebP 格式输出，且脱离云服务商的限制，做到节省流量+提升页面加载速度的效果，WebP Server Go (https://github.com/webp-sh/webp_server_go) 应运而生。 ",
            "使用 Go 编写的 WebP Server 是一个单一的 binary，性能优异，并且可以无缝转换JPG/PNG为webp。",
            "只需要一次配置即可在不改变 URL 的情况下将站点图片以 WebP 格式输出，唯一改变的只有 content-type 和 length，无痛加速站点。原来下载10M的图片要花10秒钟，使用WebP Server Go (https://github.com/webp-sh/webp_server_go)，只需要一秒钟就够了。"
        ],
        "speaker": {
            "name": "Nova Kwok",
            "org": "PingCAP",
            "desc": [
                "SRE at PingCAP"
            ]
        },
        "interview_url": ""
    },
    {
        "name": "开源 & 寒门贵子",
        "desc": [
            "开源对寒门贵子的影响怎么样？",
            "开源到底带来了什么？"
        ],
        "speaker": {
            "name": "闫放放",
            "org": "江西科技师范大学",
            "desc": [
                "一名大三在校学生，零零散散做过一些小项目，主要以开心为主。。。"
            ]
        },
        "interview_url": ""
    },
    {
        "name": "一款辅助外语学习的词典",
        "desc": [
            "本次演讲介绍“一款辅助外语学习的词典” 这个 Web 应用及其开发的技术栈。",
            "这款应用让外语学习者通过浏览器添加单词，制作自己的词典。",
            "作为一个 Web 应用，其前端主要采用了传统的 HTML + Jquery",
            "的开发方式，数据采用 XML 保存，用 XSLT 样式表来渲染。",
            "后端使用了 Django 用于处理 POST 表单并在服务器上修改 XML 数据文件。",
            "目前前后端还有许多不完善的地方，欢迎有兴趣的小伙伴参与贡献。"
        ],
        "speaker": {
            "name": "赵丰",
            "org": "清华大学国际研究生院",
            "desc": [
                "开源爱好者"
            ]
        },
        "interview_url": ""
    },
    {
        "name": "像个抖 M 一样写代码",
        "desc": [
            "这一看就是标题党，实际上是讲两个话题，静态类型系统和设计模式的。两者尤其是设计模式在码农间褒贬不一，讲者决定站在自己的角度谈谈如何理性看待这两位限制着程序员自由发挥的抖 S 们(笑)。"
        ],
        "speaker": {
            "name": "ICE1000/千里冰封",
            "org": "",
            "desc": [
                "编程菜鸡，GitHub 用户名 ice1000"
            ]
        },
        "interview_url": ""
    }
]